[
  {
      "scope": [
          "registrar"
      ],
      "resource": "/api/",
      "access": [
          "read",
          "write"
      ]
  },
  {
      "scope": [
          "students",
          "teachers"
      ],
      "resource": "/api/users/me",
      "access": [
          "read"
      ]
  },
  {
      "scope": [
          "students",
          "teachers"
      ],
      "resource": "/api/diagnostics/",
      "access": [
          "read"
      ]
  },
  {
      "scope": [
          "students"
      ],
      "resource": "/api/LocalDepartments/?$",
      "access": [
          "read"
      ]
  },
  {
      "scope": [
          "students",
          "teachers"
      ],
      "resource": "/api/GradeScales/?$",
      "access": [
          "read"
      ]
  },
  {
      "scope": [
          "students"
      ],
      "resource": "/api/DocumentConfigurations/?$",
      "access": [
          "read"
      ]
  },
  {
      "scope": [
          "students"
      ],
      "resource": "/api/students/me",
      "access": [
          "read"
      ]
  },
  {
      "scope": [
          "students"
      ],
      "resource": "/api/students/me/currentRegistration",
      "access": [
          "read",
          "write"
      ]
  },
  {
      "scope": [
          "students"
      ],
      "resource": "/api/students/me/currentRegisterAction",
      "access": [
          "read",
          "write"
      ]
  },
  {
      "scope": [
          "students"
      ],
      "resource": "/api/students/me/programGroupActions",
      "access": [
          "read",
          "write"
      ]
  },
  {
      "scope": [
          "students"
      ],
      "resource": "/api/students/me/CalculateGraduationDegree",
      "access": [
          "write"
      ]
  },
  {
      "scope": [
          "students"
      ],
      "resource": "/api/requestDocumentActions/?$",
      "access": [
          "read",
          "write"
      ]
  },
  {
      "scope": [
          "teachers"
      ],
      "resource": "/api/testTypes/?$",
      "access": [
          "read"
      ]
  },
  {
      "scope": [
          "teachers"
      ],
      "resource": "/api/instructors/me",
      "access": [
          "read"
      ]
  },
  {
      "scope": [
          "teachers"
      ],
      "resource": "/api/instructors/me/classes/(\\w+)/students/sendMessage",
      "access": [
          "write"
      ]
  },
  {
      "scope": [
          "teachers"
      ],
      "resource": "/api/instructors/me/classes/(\\w+)/students/(\\d+)/sendMessage",
      "access": [
          "write"
      ]
  },
  {
      "scope": [
          "teachers"
      ],
      "resource": "/api/instructors/me/theses/(\\d+)/students/(\\d+)/sendMessage",
      "access": [
          "write"
      ]
  },
  {
      "scope": [
          "teachers"
      ],
      "resource": "/api/instructors/me/exams/(\\d+)/types",
      "access": [
          "write"
      ]
  },
  {
      "scope": [
          "teachers"
      ],
      "resource": "/api/instructors/me/exams/(\\d+)/students",
      "access": [
          "read",
          "write"
      ]
  },
  {
      "scope": [
          "teachers"
      ],
      "resource": "/api/instructors/me/exams/(\\d+)/actions/(\\d+)",
      "access": [
          "read",
          "write"
      ]
  },
  {
      "scope": [
          "teachers",
          "students"
      ],
      "resource": "/api/content/private/(\\w+)",
      "access": [
          "read"
      ]
  },
  {
      "scope": [
          "students",
          "teachers"
      ],
      "resource": "/api/CourseTypes/?$",
      "access": [
          "read"
      ]
  },
  {
      "scope": [
          "students"
      ],
      "resource": "/api/DocumentConfigurations/?$",
      "access": [
          "read"
      ]
  },
  {
      "scope": [
          "students"
      ],
      "resource": "/api/RequestMessageActions/?$",
      "access": [
          "read",
          "write"
      ]
  },
  {
      "scope": [
          "students"
      ],
      "resource": "/api/graduationRequestActions/?$",
      "access": [
          "read",
          "write"
      ]
  },
  {
      "scope": [
          "students"
      ],
      "resource": "/api/examPeriodParticipateActions/?$",
      "access": [
          "read",
          "write"
      ]
  },
  {
      "scope": [
          "students"
      ],
      "resource": "/api/studentSuspendActions/?$",
      "access": [
          "read",
          "write"
      ]
  },
  {
      "scope": [
          "students"
      ],
      "resource": "/api/students/me/specialty",
      "access": [
          "read",
          "write"
      ]
  },
  {
      "scope": [
          "students"
      ],
      "resource": "/api/students/me/messages/(\\d+)/markAsRead",
      "access": [
          "write"
      ]
  },
  {
      "scope": [
          "students"
      ],
      "resource": "/api/students/me/requests/(\\d+)/attachments/add",
      "access": [
          "write"
      ]
  },
  {
      "scope": [
          "students"
      ],
      "resource": "/api/students/me/requests/(\\d+)/attachments/(\\d+)/remove",
      "access": [
          "write"
      ]
  },
  {
      "scope": [
          "students"
      ],
      "resource": "/api/CourseClasses/(\\w+)/sections",
      "access": [
          "read"
      ]
  },
  {
      "scope": [
          "teachers"
      ],
      "resource": "/api/instructors/me/messages/(\\d+)/markAsRead",
      "access": [
          "write"
      ]
  }
]
